EESchema Schematic File Version 4
EELAYER 30 0
EELAYER END
$Descr A4 11693 8268
encoding utf-8
Sheet 3 4
Title ""
Date ""
Rev ""
Comp ""
Comment1 ""
Comment2 ""
Comment3 ""
Comment4 ""
$EndDescr
$Comp
L Device:R R?
U 1 1 60B76169
P 3800 2800
AR Path="/60AFFDCF/60B76169" Ref="R?"  Part="1" 
AR Path="/60AFFE83/60B76169" Ref="R13"  Part="1" 
F 0 "R13" H 3870 2846 50  0000 L CNN
F 1 "10k" H 3870 2755 50  0000 L CNN
F 2 "Resistor_SMD:R_0603_1608Metric" V 3730 2800 50  0001 C CNN
F 3 "~" H 3800 2800 50  0001 C CNN
	1    3800 2800
	1    0    0    -1  
$EndComp
$Comp
L Device:R R?
U 1 1 60B778D9
P 3800 2400
AR Path="/60AFFDCF/60B778D9" Ref="R?"  Part="1" 
AR Path="/60AFFE83/60B778D9" Ref="R12"  Part="1" 
F 0 "R12" H 3870 2446 50  0000 L CNN
F 1 "10k" H 3870 2355 50  0000 L CNN
F 2 "Resistor_SMD:R_0603_1608Metric" V 3730 2400 50  0001 C CNN
F 3 "~" H 3800 2400 50  0001 C CNN
	1    3800 2400
	1    0    0    -1  
$EndComp
$Comp
L Device:R R?
U 1 1 60B784B1
P 3400 2800
AR Path="/60AFFDCF/60B784B1" Ref="R?"  Part="1" 
AR Path="/60AFFE83/60B784B1" Ref="R10"  Part="1" 
F 0 "R10" H 3470 2846 50  0000 L CNN
F 1 "20k" H 3470 2755 50  0000 L CNN
F 2 "Resistor_SMD:R_0603_1608Metric" V 3330 2800 50  0001 C CNN
F 3 "~" H 3400 2800 50  0001 C CNN
	1    3400 2800
	1    0    0    -1  
$EndComp
$Comp
L Device:R R?
U 1 1 60B78810
P 3400 3600
AR Path="/60AFFDCF/60B78810" Ref="R?"  Part="1" 
AR Path="/60AFFE83/60B78810" Ref="R11"  Part="1" 
F 0 "R11" H 3470 3646 50  0000 L CNN
F 1 "8k2" H 3470 3555 50  0000 L CNN
F 2 "Resistor_SMD:R_0603_1608Metric" V 3330 3600 50  0001 C CNN
F 3 "~" H 3400 3600 50  0001 C CNN
	1    3400 3600
	1    0    0    -1  
$EndComp
Wire Wire Line
	4000 3050 3800 3050
Wire Wire Line
	3800 3050 3800 2950
Wire Wire Line
	3800 2650 3800 2600
Wire Wire Line
	3800 2600 4650 2600
Wire Wire Line
	4650 2600 4650 3150
Wire Wire Line
	4650 3150 4600 3150
Connection ~ 3800 2600
Wire Wire Line
	3800 2600 3800 2550
Wire Wire Line
	4000 3250 3400 3250
Wire Wire Line
	3400 3250 3400 2950
Wire Wire Line
	3400 3450 3400 3250
Connection ~ 3400 3250
$Comp
L power:GND #PWR0101
U 1 1 60B7D8B1
P 3400 3900
F 0 "#PWR0101" H 3400 3650 50  0001 C CNN
F 1 "GND" H 3405 3727 50  0000 C CNN
F 2 "" H 3400 3900 50  0001 C CNN
F 3 "" H 3400 3900 50  0001 C CNN
	1    3400 3900
	1    0    0    -1  
$EndComp
$Comp
L power:GND #PWR0102
U 1 1 60B7DFA5
P 4250 3900
F 0 "#PWR0102" H 4250 3650 50  0001 C CNN
F 1 "GND" H 4255 3727 50  0000 C CNN
F 2 "" H 4250 3900 50  0001 C CNN
F 3 "" H 4250 3900 50  0001 C CNN
	1    4250 3900
	1    0    0    -1  
$EndComp
Wire Wire Line
	3400 3900 3400 3750
Wire Wire Line
	4250 3375 4250 3900
Text GLabel 3400 2400 1    50   Input ~ 0
Vstore
Wire Wire Line
	3400 2400 3400 2650
Text GLabel 4250 2800 1    50   Input ~ 0
5V
Wire Wire Line
	4250 2925 4250 2800
Text GLabel 5400 3150 2    50   Output ~ 0
Vadc
Wire Wire Line
	4650 3150 5200 3150
Connection ~ 4650 3150
$Comp
L power:GND #PWR0103
U 1 1 60B8678D
P 4950 3900
F 0 "#PWR0103" H 4950 3650 50  0001 C CNN
F 1 "GND" H 4955 3727 50  0000 C CNN
F 2 "" H 4950 3900 50  0001 C CNN
F 3 "" H 4950 3900 50  0001 C CNN
	1    4950 3900
	1    0    0    -1  
$EndComp
Wire Wire Line
	4950 3900 4950 2100
Wire Wire Line
	4950 2100 3800 2100
Wire Wire Line
	3800 2100 3800 2250
$Comp
L Device:D_Zener_ALT D7
U 1 1 60B877E1
P 5200 3500
F 0 "D7" V 5154 3580 50  0000 L CNN
F 1 "3v3" V 5245 3580 50  0000 L CNN
F 2 "Diode_THT:D_A-405_P2.54mm_Vertical_KathodeUp" H 5200 3500 50  0001 C CNN
F 3 "~" H 5200 3500 50  0001 C CNN
	1    5200 3500
	0    1    1    0   
$EndComp
Wire Wire Line
	5200 3350 5200 3150
Connection ~ 5200 3150
Wire Wire Line
	5200 3150 5400 3150
$Comp
L power:GND #PWR0104
U 1 1 60B88C22
P 5200 3900
F 0 "#PWR0104" H 5200 3650 50  0001 C CNN
F 1 "GND" H 5205 3727 50  0000 C CNN
F 2 "" H 5200 3900 50  0001 C CNN
F 3 "" H 5200 3900 50  0001 C CNN
	1    5200 3900
	1    0    0    -1  
$EndComp
Wire Wire Line
	5200 3900 5200 3650
Wire Wire Line
	4600 4900 4600 4450
Wire Wire Line
	4600 4450 4000 4450
Wire Wire Line
	4000 4450 4000 4800
$Comp
L power:GND #PWR0105
U 1 1 60BAA1EE
P 4000 5200
F 0 "#PWR0105" H 4000 4950 50  0001 C CNN
F 1 "GND" H 4005 5027 50  0000 C CNN
F 2 "" H 4000 5200 50  0001 C CNN
F 3 "" H 4000 5200 50  0001 C CNN
	1    4000 5200
	1    0    0    -1  
$EndComp
Wire Wire Line
	4000 5200 4000 5000
$Comp
L Linear~technologies:LT1413 U3
U 1 1 60B6A526
P 4300 4900
F 0 "U3" H 4300 5265 50  0000 C CNN
F 1 "LT1413" H 4300 5174 50  0000 C CNN
F 2 "Package_SO:HSOP-8-1EP_3.9x4.9mm_P1.27mm_EP2.41x3.1mm" H 4300 4900 50  0001 C CNN
F 3 "" H 4300 4900 50  0001 C CNN
	1    4300 4900
	1    0    0    -1  
$EndComp
$Comp
L Linear~technologies:LT1413 U3
U 2 1 60B6AE38
P 4300 3150
F 0 "U3" H 4300 3515 50  0000 C CNN
F 1 "LT1413" H 4300 3424 50  0000 C CNN
F 2 "Package_SO:HSOP-8-1EP_3.9x4.9mm_P1.27mm_EP2.41x3.1mm" H 4300 3150 50  0001 C CNN
F 3 "" H 4300 3150 50  0001 C CNN
	2    4300 3150
	1    0    0    -1  
$EndComp
$Comp
L Linear~technologies:LT1413 U3
U 3 1 60B6BEB1
P 4300 3150
F 0 "U3" H 4295 3196 50  0000 L CNN
F 1 "LT1413" H 4295 3105 50  0000 L CNN
F 2 "Package_SO:HSOP-8-1EP_3.9x4.9mm_P1.27mm_EP2.41x3.1mm" H 4300 3150 50  0001 C CNN
F 3 "" H 4300 3150 50  0001 C CNN
	3    4300 3150
	1    0    0    -1  
$EndComp
$EndSCHEMATC
