EESchema Schematic File Version 4
EELAYER 30 0
EELAYER END
$Descr A4 11693 8268
encoding utf-8
Sheet 2 4
Title ""
Date ""
Rev ""
Comp ""
Comment1 ""
Comment2 ""
Comment3 ""
Comment4 ""
$EndDescr
$Comp
L Regulator_Linear:LM317_3PinPackage U1
U 1 1 60AFC1D2
P 3300 2750
F 0 "U1" H 3300 2992 50  0000 C CNN
F 1 "LT317A" H 3300 2901 50  0000 C CNN
F 2 "Package_TO_SOT_THT:TO-220-3_Vertical" H 3300 3000 50  0001 C CIN
F 3 "http://www.ti.com/lit/ds/symlink/lm317.pdf" H 3300 2750 50  0001 C CNN
	1    3300 2750
	1    0    0    -1  
$EndComp
$Comp
L Diode:1N5817 D2
U 1 1 60AFD7BC
P 3950 2750
F 0 "D2" H 3950 2534 50  0000 C CNN
F 1 "RBR3MM40A" H 3950 2625 50  0000 C CNN
F 2 "Diode_SMD:D_SOD-123F" H 3950 2575 50  0001 C CNN
F 3 "http://www.vishay.com/docs/88525/1n5817.pdf" H 3950 2750 50  0001 C CNN
	1    3950 2750
	-1   0    0    1   
$EndComp
$Comp
L Diode:1N5817 D3
U 1 1 60AFE32A
P 4800 2750
F 0 "D3" H 4800 2534 50  0000 C CNN
F 1 "RBR3MM40A" H 4800 2625 50  0000 C CNN
F 2 "Diode_SMD:D_SOD-123F" H 4800 2575 50  0001 C CNN
F 3 "http://www.vishay.com/docs/88525/1n5817.pdf" H 4800 2750 50  0001 C CNN
	1    4800 2750
	-1   0    0    1   
$EndComp
$Comp
L Diode:1N5817 D1
U 1 1 60AFE7CB
P 4800 2300
F 0 "D1" H 4800 2084 50  0000 C CNN
F 1 "RBR3MM40A" H 4800 2175 50  0000 C CNN
F 2 "Diode_SMD:D_SOD-123F" H 4800 2125 50  0001 C CNN
F 3 "http://www.vishay.com/docs/88525/1n5817.pdf" H 4800 2300 50  0001 C CNN
	1    4800 2300
	-1   0    0    1   
$EndComp
$Comp
L Diode:1N5817 D6
U 1 1 60AFEE26
P 4100 4100
F 0 "D6" V 4050 3800 50  0000 L CNN
F 1 "RBR3MM40A" V 4200 3550 50  0000 L CNN
F 2 "Diode_SMD:D_SOD-123F" H 4100 3925 50  0001 C CNN
F 3 "http://www.vishay.com/docs/88525/1n5817.pdf" H 4100 4100 50  0001 C CNN
	1    4100 4100
	0    1    1    0   
$EndComp
$Comp
L Diode:1N5817 D5
U 1 1 60AFF800
P 6900 3850
F 0 "D5" V 6854 3929 50  0000 L CNN
F 1 "RBR3MM40A" V 6945 3929 50  0000 L CNN
F 2 "Diode_SMD:D_SOD-123F" H 6900 3675 50  0001 C CNN
F 3 "http://www.vishay.com/docs/88525/1n5817.pdf" H 6900 3850 50  0001 C CNN
	1    6900 3850
	0    1    1    0   
$EndComp
$Comp
L Diode:1N5817 D4
U 1 1 60B00D3B
P 8700 2750
F 0 "D4" H 8700 2534 50  0000 C CNN
F 1 "RBR3MM40A" H 8700 2625 50  0000 C CNN
F 2 "Diode_SMD:D_SOD-123F" H 8700 2575 50  0001 C CNN
F 3 "http://www.vishay.com/docs/88525/1n5817.pdf" H 8700 2750 50  0001 C CNN
	1    8700 2750
	-1   0    0    1   
$EndComp
$Comp
L Device:R R1
U 1 1 60B0271A
P 3700 3100
F 0 "R1" H 3770 3146 50  0000 L CNN
F 1 "240E" H 3770 3055 50  0000 L CNN
F 2 "Resistor_THT:R_Axial_DIN0207_L6.3mm_D2.5mm_P2.54mm_Vertical" V 3630 3100 50  0001 C CNN
F 3 "~" H 3700 3100 50  0001 C CNN
	1    3700 3100
	1    0    0    -1  
$EndComp
$Comp
L Device:R R4
U 1 1 60B02D1F
P 2600 3650
F 0 "R4" H 2670 3696 50  0000 L CNN
F 1 "1k" H 2670 3605 50  0000 L CNN
F 2 "Resistor_SMD:R_0603_1608Metric" V 2530 3650 50  0001 C CNN
F 3 "~" H 2600 3650 50  0001 C CNN
	1    2600 3650
	1    0    0    -1  
$EndComp
$Comp
L Device:R R8
U 1 1 60B033D8
P 2600 4100
F 0 "R8" H 2670 4146 50  0000 L CNN
F 1 "1k" H 2670 4055 50  0000 L CNN
F 2 "Resistor_SMD:R_0603_1608Metric" V 2530 4100 50  0001 C CNN
F 3 "~" H 2600 4100 50  0001 C CNN
	1    2600 4100
	1    0    0    -1  
$EndComp
$Comp
L Device:R R5
U 1 1 60B037AD
P 3850 3650
F 0 "R5" V 3643 3650 50  0000 C CNN
F 1 "100E" V 3734 3650 50  0000 C CNN
F 2 "Resistor_THT:R_Axial_DIN0207_L6.3mm_D2.5mm_P2.54mm_Vertical" V 3780 3650 50  0001 C CNN
F 3 "~" H 3850 3650 50  0001 C CNN
	1    3850 3650
	0    1    1    0   
$EndComp
$Comp
L Device:R R9
U 1 1 60B03C1D
P 4350 4100
F 0 "R9" H 4280 4054 50  0000 R CNN
F 1 "0.8E" H 4280 4145 50  0000 R CNN
F 2 "Resistor_THT:R_Axial_DIN0207_L6.3mm_D2.5mm_P2.54mm_Vertical" V 4280 4100 50  0001 C CNN
F 3 "~" H 4350 4100 50  0001 C CNN
	1    4350 4100
	-1   0    0    1   
$EndComp
$Comp
L Device:R R3
U 1 1 60B04051
P 6250 3450
F 0 "R3" H 6180 3404 50  0000 R CNN
F 1 "10k" H 6180 3495 50  0000 R CNN
F 2 "Resistor_SMD:R_0603_1608Metric" V 6180 3450 50  0001 C CNN
F 3 "~" H 6250 3450 50  0001 C CNN
	1    6250 3450
	-1   0    0    1   
$EndComp
Wire Wire Line
	3600 2750 3700 2750
Wire Wire Line
	3700 2950 3700 2750
Connection ~ 3700 2750
Wire Wire Line
	3700 2750 3800 2750
Wire Wire Line
	3700 3250 3700 3300
Wire Wire Line
	3300 3300 3300 3050
$Comp
L Transistor_BJT:BC547 Q1
U 1 1 60B04DA6
P 3400 3650
F 0 "Q1" H 3250 3800 50  0000 L CNN
F 1 "BC547" H 3150 3450 50  0000 L CNN
F 2 "Package_TO_SOT_THT:TO-92_Inline" H 3600 3575 50  0001 L CIN
F 3 "http://www.fairchildsemi.com/ds/BC/BC547.pdf" H 3400 3650 50  0001 L CNN
	1    3400 3650
	-1   0    0    -1  
$EndComp
$Comp
L Transistor_BJT:BC547 Q2
U 1 1 60B06B51
P 3050 3950
F 0 "Q2" H 2950 4200 50  0000 L CNN
F 1 "BC547" H 2750 3800 50  0000 L CNN
F 2 "Package_TO_SOT_THT:TO-92_Inline" H 3250 3875 50  0001 L CIN
F 3 "http://www.fairchildsemi.com/ds/BC/BC547.pdf" H 3050 3950 50  0001 L CNN
	1    3050 3950
	-1   0    0    -1  
$EndComp
Wire Wire Line
	3700 3300 3300 3300
Wire Wire Line
	3300 3450 3300 3300
Connection ~ 3300 3300
Wire Wire Line
	3600 3650 3700 3650
Wire Wire Line
	3300 3850 3300 3950
Wire Wire Line
	3300 3950 3250 3950
Wire Wire Line
	3300 3300 2950 3300
Wire Wire Line
	2950 3300 2950 3750
Wire Wire Line
	2950 3300 2600 3300
Wire Wire Line
	2600 3300 2600 3500
Connection ~ 2950 3300
Wire Wire Line
	2600 3800 2600 3950
Wire Wire Line
	2600 4250 2600 4550
Wire Wire Line
	2600 4550 2950 4550
Wire Wire Line
	2950 4550 2950 4150
Wire Wire Line
	4100 4250 4100 4550
Wire Wire Line
	4100 4550 2950 4550
Connection ~ 2950 4550
Wire Wire Line
	4000 3650 4100 3650
Wire Wire Line
	4100 3650 4100 3950
Wire Wire Line
	4350 4250 4350 4550
Wire Wire Line
	4350 4550 4100 4550
Connection ~ 4100 4550
Wire Wire Line
	4350 3950 4350 3650
Wire Wire Line
	4350 3650 4100 3650
Connection ~ 4100 3650
Connection ~ 4350 3650
Wire Wire Line
	4100 2750 4350 2750
Wire Wire Line
	4350 2750 4350 3000
Wire Wire Line
	4650 2750 4350 2750
Connection ~ 4350 2750
Wire Wire Line
	4950 2750 5100 2750
Wire Wire Line
	5100 2750 5100 2300
Wire Wire Line
	5100 2300 4950 2300
Wire Wire Line
	4650 2300 2900 2300
Wire Wire Line
	2900 2300 2900 2750
Wire Wire Line
	2900 2750 3000 2750
Connection ~ 2900 2300
$Comp
L Device:CP C4
U 1 1 60B15DCD
P 2150 3900
F 0 "C4" H 2268 3946 50  0000 L CNN
F 1 "1000uF" H 2200 3750 50  0000 L CNN
F 2 "Capacitor_THT:CP_Radial_D10.0mm_P5.00mm_P7.50mm" H 2188 3750 50  0001 C CNN
F 3 "~" H 2150 3900 50  0001 C CNN
	1    2150 3900
	1    0    0    -1  
$EndComp
Wire Wire Line
	2150 4050 2150 4550
Wire Wire Line
	2150 4550 2600 4550
Connection ~ 2600 4550
Wire Wire Line
	2150 3750 2150 2750
Wire Wire Line
	2150 2750 2900 2750
Connection ~ 2900 2750
$Comp
L Device:CP C2
U 1 1 60B180CF
P 5100 3550
F 0 "C2" H 5218 3596 50  0000 L CNN
F 1 "220uF" H 5150 3400 50  0000 L CNN
F 2 "Capacitor_THT:CP_Radial_D6.3mm_P2.50mm" H 5138 3400 50  0001 C CNN
F 3 "~" H 5100 3550 50  0001 C CNN
	1    5100 3550
	1    0    0    -1  
$EndComp
Connection ~ 5100 2750
Wire Wire Line
	5100 3700 5100 4550
Wire Wire Line
	5100 4550 4350 4550
Connection ~ 4350 4550
Wire Wire Line
	5950 3150 5950 4550
Wire Wire Line
	5950 4550 5100 4550
Connection ~ 5100 4550
$Comp
L Device:C C3
U 1 1 60B1BDF4
P 6250 3850
F 0 "C3" H 6365 3896 50  0000 L CNN
F 1 "10nF" H 6365 3805 50  0000 L CNN
F 2 "Capacitor_THT:C_Rect_L7.2mm_W2.5mm_P5.00mm_FKS2_FKP2_MKS2_MKP2" H 6288 3700 50  0001 C CNN
F 3 "~" H 6250 3850 50  0001 C CNN
	1    6250 3850
	1    0    0    -1  
$EndComp
Wire Wire Line
	6250 3700 6250 3600
Wire Wire Line
	5100 2750 5100 3400
Wire Wire Line
	6250 3300 6250 3150
Wire Wire Line
	6250 4000 6250 4550
Wire Wire Line
	6250 4550 5950 4550
Connection ~ 5950 4550
$Comp
L pspice:INDUCTOR L1
U 1 1 60B1EF50
P 7300 2750
F 0 "L1" H 7300 2965 50  0000 C CNN
F 1 "50uH" H 7300 2874 50  0000 C CNN
F 2 "Inductor_SMD:L_6.3x6.3_H3" H 7300 2750 50  0001 C CNN
F 3 "~" H 7300 2750 50  0001 C CNN
	1    7300 2750
	1    0    0    -1  
$EndComp
Wire Wire Line
	7050 2750 6900 2750
Wire Wire Line
	7550 2750 7750 2750
Wire Wire Line
	8850 2750 9350 2750
Text GLabel 9350 2750 2    50   Output ~ 0
5V
Wire Wire Line
	4350 3000 4500 3000
Connection ~ 4350 3000
Text GLabel 4500 3000 2    50   Output ~ 0
Vstore
Connection ~ 6900 2750
Wire Wire Line
	6900 2750 6650 2750
Wire Wire Line
	6900 2750 6900 3700
Wire Wire Line
	6900 4000 6900 4550
Wire Wire Line
	6900 4550 6250 4550
Connection ~ 6250 4550
$Comp
L Device:C C1
U 1 1 60B27EC3
P 7750 3100
F 0 "C1" H 7635 3054 50  0000 R CNN
F 1 "47nF" H 7635 3145 50  0000 R CNN
F 2 "Capacitor_THT:C_Rect_L7.2mm_W2.5mm_P5.00mm_FKS2_FKP2_MKS2_MKP2" H 7788 2950 50  0001 C CNN
F 3 "~" H 7750 3100 50  0001 C CNN
	1    7750 3100
	-1   0    0    1   
$EndComp
Wire Wire Line
	6650 2900 7050 2900
Wire Wire Line
	7050 2900 7050 3400
Wire Wire Line
	7050 3400 7750 3400
Wire Wire Line
	7750 3400 7750 3250
Wire Wire Line
	7750 2950 7750 2750
$Comp
L Device:R R2
U 1 1 60B2B7B3
P 8200 3100
F 0 "R2" H 8130 3054 50  0000 R CNN
F 1 "2k7" H 8130 3145 50  0000 R CNN
F 2 "Resistor_SMD:R_0603_1608Metric" V 8130 3100 50  0001 C CNN
F 3 "~" H 8200 3100 50  0001 C CNN
	1    8200 3100
	-1   0    0    1   
$EndComp
$Comp
L Device:R R6
U 1 1 60B2BC73
P 8200 3650
F 0 "R6" H 8130 3604 50  0000 R CNN
F 1 "1k8" H 8130 3695 50  0000 R CNN
F 2 "Resistor_SMD:R_0603_1608Metric" V 8130 3650 50  0001 C CNN
F 3 "~" H 8200 3650 50  0001 C CNN
	1    8200 3650
	-1   0    0    1   
$EndComp
Wire Wire Line
	7750 2750 8200 2750
Connection ~ 7750 2750
Wire Wire Line
	8200 2950 8200 2750
Connection ~ 8200 2750
Wire Wire Line
	8200 2750 8550 2750
Wire Wire Line
	8200 3250 8200 3400
Wire Wire Line
	7750 3400 8200 3400
Connection ~ 7750 3400
Connection ~ 8200 3400
Wire Wire Line
	8200 3400 8200 3500
Wire Wire Line
	8200 4550 6900 4550
Connection ~ 6900 4550
$Comp
L Device:R R7
U 1 1 60B33B9E
P 8200 4050
F 0 "R7" H 8130 4004 50  0000 R CNN
F 1 "100E" H 8130 4095 50  0000 R CNN
F 2 "Resistor_THT:R_Axial_DIN0207_L6.3mm_D2.5mm_P2.54mm_Vertical" V 8130 4050 50  0001 C CNN
F 3 "~" H 8200 4050 50  0001 C CNN
	1    8200 4050
	-1   0    0    1   
$EndComp
Wire Wire Line
	8200 3800 8200 3900
Wire Wire Line
	8200 4200 8200 4550
Wire Wire Line
	8200 4550 9350 4550
Connection ~ 8200 4550
Text GLabel 9350 4550 2    50   Output ~ 0
GND
Text GLabel 2100 2300 0    50   Input ~ 0
Vin
Wire Wire Line
	2100 2300 2900 2300
$Comp
L power:GND #PWR01
U 1 1 60B3C3E5
P 5100 4700
F 0 "#PWR01" H 5100 4450 50  0001 C CNN
F 1 "GND" H 5105 4527 50  0000 C CNN
F 2 "" H 5100 4700 50  0001 C CNN
F 3 "" H 5100 4700 50  0001 C CNN
	1    5100 4700
	1    0    0    -1  
$EndComp
Wire Wire Line
	5100 4700 5100 4550
Wire Wire Line
	5650 2750 5100 2750
$Comp
L Linear~technologies:LT1074 U2
U 1 1 60B02C27
P 6150 2850
F 0 "U2" H 6150 3215 50  0000 C CNN
F 1 "LT1074" H 6150 3124 50  0000 C CNN
F 2 "Package_TO_SOT_THT:TO-220-5_Vertical" H 6150 2850 50  0001 C CNN
F 3 "" H 6150 2850 50  0001 C CNN
	1    6150 2850
	1    0    0    -1  
$EndComp
$Comp
L Connector:Conn_01x02_Male J1
U 1 1 60BAD444
P 4550 3300
F 0 "J1" H 4900 3250 50  0000 R CNN
F 1 "Battery Connector" H 4500 3400 50  0001 R CNN
F 2 "Connector_PinHeader_2.54mm:PinHeader_1x02_P2.54mm_Horizontal" H 4550 3300 50  0001 C CNN
F 3 "~" H 4550 3300 50  0001 C CNN
	1    4550 3300
	-1   0    0    1   
$EndComp
Wire Wire Line
	4350 3000 4350 3200
Wire Wire Line
	4350 3300 4350 3650
Text Notes 4400 3550 0    50   ~ 0
Lithium Battery\n11.1V Nominal
Text Notes 4600 3200 0    50   ~ 0
+\n
Text Notes 4600 3350 0    50   ~ 0
-\n
$EndSCHEMATC
